EDS 222: Assignment 01
…
strat_random_sample <- combined_obs %>% 
  mutate(latitude_round = round(latitude, 2)) %>% 
  group_by(latitude_round)
  
strat_random_sample

## # A tibble: 7,448 x 6
## # Groups:   latitude_round [5]
##    date          PM latitude longitude datasource latitude_round
##    <date>     <dbl>    <dbl>     <dbl> <chr>               <dbl>
##  1 2018-11-04    28     31.6      74.3 Government           31.6
##  2 2018-11-05    34     31.6      74.3 Government           31.6
##  3 2018-11-06    44     31.6      74.3 Government           31.6
##  4 2018-11-07    60     31.6      74.3 Government           31.6
##  5 2018-11-08    25     31.6      74.3 Government           31.6
##  6 2018-11-09    60     31.6      74.3 Government           31.6
##  7 2018-11-10    62     31.6      74.3 Government           31.6
##  8 2018-11-11    48     31.6      74.3 Government           31.6
##  9 2018-11-12    46     31.6      74.3 Government           31.6
## 10 2018-11-13    25     31.6      74.3 Government           31.6
## # ... with 7,438 more rows
…
